{
  "routes": {
    "/": {
      "insert": {
        "permission": "user"
      },
      "read": {
        "permission": "public"
      },
      "update": {
        "permission": "admin"
      },
      "delete": {
        "permission": "admin"
      }
    }
  }
}